%!PS-Adobe-3.0 EPSF-3.0
%%Title: EAGLE Drawing /Users/andreas/Documents/Projects/FridgeAlarm/pcb/FridgeWarninig_0.1.brd
%%Creator: EAGLE
%%Pages: 1
%%BoundingBox: 0 0 576 810
%%EndComments

% Coordinate transfer:

/EU { 254 div 0.072 mul } def
/inch { 72 mul } def

% Linestyle:

1 setlinecap
1 setlinejoin

% Drawing functions:

/l {  % draw a line
   /lw exch def
   /y2 exch def
   /x2 exch def
   /y1 exch def
   /x1 exch def
   newpath
   x1 EU y1 EU moveto
   x2 EU y2 EU lineto
   lw EU setlinewidth
   stroke
   } def

/h {  % draw a hole
   /d  exch def
   /y  exch def
   /x  exch def
   d 0 gt {
     newpath
     x EU y EU d 2 div EU 0 360 arc
     currentgray dup
     1 exch sub setgray
     fill
     setgray
     } if
   } def

/b {  % draw a bar
   /an exch def
   /y2 exch def
   /x2 exch def
   /y1 exch def
   /x1 exch def
   /w2 x2 x1 sub 2 div EU def
   /h2 y2 y1 sub 2 div EU def
   gsave
   x1 x2 add 2 div EU y1 y2 add 2 div EU translate
   an rotate
   newpath
   w2     h2     moveto
   w2 neg h2     lineto
   w2 neg h2 neg lineto
   w2     h2 neg lineto
   closepath
   fill
   grestore
   } def

/c {  % draw a circle
   /lw exch def
   /rd exch def
   /y  exch def
   /x  exch def
   newpath
   lw EU setlinewidth
   x EU y EU rd EU 0 360 arc
   stroke
   } def

/a {  % draw an arc
   /lc exch def
   /ae exch def
   /as exch def
   /lw exch def
   /rd exch def
   /y  exch def
   /x  exch def
   lw rd 2 mul gt {
     /rd rd lw 2 div add 2 div def
     /lw rd 2 mul def
     } if
   currentlinecap currentlinejoin
   lc setlinecap 0 setlinejoin
   newpath
   lw EU setlinewidth
   x EU y EU rd EU as ae arc
   stroke
   setlinejoin setlinecap
   } def

/p {  % draw a pie
   /d exch def
   /y exch def
   /x exch def
   newpath
   x EU y EU d 2 div EU 0 360 arc
   fill
   } def

/edge { 0.20710678119 mul } def

/o {  % draw an octagon
   /an exch def
   /dy exch def
   /dx exch def
   /y  exch def
   /x  exch def
   gsave
   x EU y EU translate
   an dx dy lt { 90 add /dx dy /dy dx def def } if rotate
   newpath
      0 dx 2 div sub EU                    0 dy edge  add EU moveto
      0 dx dy sub 2 div sub dy edge sub EU 0 dy 2 div add EU lineto
      0 dx dy sub 2 div add dy edge add EU 0 dy 2 div add EU lineto
      0 dx 2 div add EU                    0 dy edge  add EU lineto
      0 dx 2 div add EU                    0 dy edge  sub EU lineto
      0 dx dy sub 2 div add dy edge add EU 0 dy 2 div sub EU lineto
      0 dx dy sub 2 div sub dy edge sub EU 0 dy 2 div sub EU lineto
      0 dx 2 div sub EU                    0 dy edge  sub EU lineto
   closepath
   fill
   grestore
   } def

% redefine our /h function with a fixed diameter
/h { % draw a hole
 /d exch def
 % Still need to pop diam off stack
 d 2500 gt {
 /d 2500 def
 % But override it to 0.5mm
 } if
 /y exch def
 /x exch def
 d 0 gt {
 newpath
 x EU y EU d 2 div EU 0 360 arc
 currentgray dup
 1 exch sub setgray
 fill
 setgray
 } if
 } def
% Remainder of Header2 copied from define for PS device
% the real drawing size:

/MinDrawX      0 EU def
/MinDrawY      0 EU def
/MaxDrawX 509144 EU def
/MaxDrawY 350545 EU def

% the usable page size:

/LeftMargin 0.25 inch def % change these if drawing gets clipped!
/BotMargin 0.25 inch def
/PageWidth  7.7500 inch def
/PageHeight 11.0000 inch def

% are we going to rotate?:

/RotateDrawing 0 0 ne def

% Media size functions:

/AbortMessage {  % Show a message in a box and stop printing
   /h 100 def
   /Courier findfont 12 scalefont setfont
   mediawidth pagemargin sub h 1 setpage
   newpath
   0 0 moveto
   0 h rlineto
   mediawidth pagemargin sub 0 rlineto
   0 h neg rlineto
   closepath
   5 setlinewidth
   stroke
   newpath 50 60 moveto (ERROR: Jobsize exceeds physical printing area!) show
   newpath 50 40 moveto (       Job has been aborted!) show
   showpage
   stop
   } def

/SelectPage {  % Select the page identified by Row and Column
   /Column exch def
   /Row    exch def

   % the actually exposed area (if the machine knows these parameters!):

   /DrawX MaxDrawX MinDrawX sub def
   /DrawY MaxDrawY MinDrawY sub def
   statusdict /setpage known
   statusdict /mediawidth known and
   statusdict /medialength known and
   statusdict /pagemargin known and {
      % this is for machines that can tell the media size:
      statusdict begin
         /MediaW mediawidth pagemargin sub def
         DrawX DrawY ge {
            DrawX MediaW le DrawY medialength le and {
               MediaW DrawY 1 setpage
               MediaW DrawX sub 2 div 0 translate
               }{
            DrawY MediaW le DrawX medialength le and {
               MediaW DrawX 0 setpage
               0 MediaW DrawY sub 2 div translate
               }{
               AbortMessage
               } ifelse
               } ifelse
            }{
            DrawY MediaW le DrawX medialength le and {
               MediaW DrawX 0 setpage
               0 MediaW DrawY sub 2 div translate
               }{
            DrawX MediaW le DrawY medialength le and {
               MediaW DrawY 1 setpage
               MediaW DrawX sub 2 div 0 translate
               }{
               AbortMessage
               } ifelse
               } ifelse
            } ifelse
         end
      }{
      % this is for machines that can NOT tell the media size:
      % (Ghostscript doesn't like this!)
      /Product product length string def
      /i 0 def
      product { dup 97 lt { 32 add } if Product exch i exch put /i i 1 add def } forall 
      Product (ghostscript) search dup /IsGhostscript exch def
      { pop pop } if
      pop
      IsGhostscript not {
         statusdict /setpage known {
            statusdict begin
               RotateDrawing {
                  LeftMargin PageHeight add BotMargin DrawY add
                  }{
                  BotMargin DrawY add LeftMargin DrawX add 
                  } ifelse
               0 setpage
               end
            } if
         } if
      % set clipping boundary:
      newpath
      LeftMargin BotMargin moveto
      0 PageHeight rlineto
      PageWidth  0 rlineto
      0 PageHeight neg rlineto
      closepath
      clip
      % set the origin:
      LeftMargin BotMargin translate
      RotateDrawing {
         0 PageHeight translate
         -90 rotate
         PageHeight Column mul neg PageWidth Row mul neg translate
         }{
         PageWidth Column mul neg PageHeight Row mul neg translate
         } ifelse
      } ifelse
   % move the lower left corner of the drawing to the origin:
   MinDrawX neg MinDrawY neg translate
   
   % Linestyle:
   
   1 setlinecap
   1 setlinejoin
   
   } def

% TheDrawing

gsave 0 0 SelectPage
254572 67109 32032 p
254572 307109 32032 p
254572 67109 8500 14000 c
254572 307109 8500 14000 c
78362 260849 8500 13990 c
31362 230849 8500 13990 c
78362 200849 8500 13990 c
334572 113749 2750 2500 c
334572 93749 2750 2500 c
334572 73749 2750 2500 c
334572 303649 2750 2500 c
334572 283649 2750 2500 c
254572 149009 3540 4080 c
254572 225209 3540 4080 c
216200 237327 231232 254359 270.0 b
216200 220327 231232 237359 270.0 b
220096 198143 227128 214175 270.0 b
220096 185543 227128 201575 270.0 b
220096 172843 227128 188875 270.0 b
220096 160143 227128 176175 270.0 b
152016 198143 159048 214175 270.0 b
152016 185443 159048 201475 270.0 b
152016 172743 159048 188775 270.0 b
152016 160043 159048 176075 270.0 b
173912 220279 188944 237311 0.0 b
190912 220279 205944 237311 0.0 b
254572 225209 23622 23622 0.0 o
254572 149009 23622 23622 0.0 o
273154 185177 288186 202209 180.0 b
256154 185177 271186 202209 180.0 b
148060 220245 163092 237277 90.0 b
148060 237245 163092 254277 90.0 b
149560 126487 161592 139519 90.0 b
149560 143487 161592 156519 90.0 b
150560 94951 160592 104983 0.0 b
150560 109951 160592 119983 0.0 b
78360 200845 45212 p
78360 260845 45212 p
31360 230845 45212 p
49074 52991 105106 117023 0.0 b
48274 148991 60306 167023 0.0 b
93874 148991 105906 167023 0.0 b
23092 166633 38124 183665 270.0 b
23092 149633 38124 166665 270.0 b
115040 166379 130072 183411 270.0 b
115040 149379 130072 166411 270.0 b
334572 113751 18288 p
334572 93751 18288 p
334572 73751 18288 p
334572 303649 16510 p
334572 283649 16510 p
194796 113057 209828 130089 90.0 b
194796 130057 209828 147089 90.0 b
172444 112549 187476 129581 90.0 b
172444 129549 187476 146581 90.0 b
showpage grestore
