%!PS-Adobe-3.0 EPSF-3.0
%%Title: EAGLE Drawing /Users/andreas/Documents/Projects/FridgeAlarm/pcb/FridgeWarninig_0.1.brd
%%Creator: EAGLE
%%Pages: 1
%%BoundingBox: 0 0 576 810
%%EndComments

% Coordinate transfer:

/EU { 254 div 0.072 mul } def
/inch { 72 mul } def

% Linestyle:

1 setlinecap
1 setlinejoin

% Drawing functions:

/l {  % draw a line
   /lw exch def
   /y2 exch def
   /x2 exch def
   /y1 exch def
   /x1 exch def
   newpath
   x1 EU y1 EU moveto
   x2 EU y2 EU lineto
   lw EU setlinewidth
   stroke
   } def

/h {  % draw a hole
   /d  exch def
   /y  exch def
   /x  exch def
   d 0 gt {
     newpath
     x EU y EU d 2 div EU 0 360 arc
     currentgray dup
     1 exch sub setgray
     fill
     setgray
     } if
   } def

/b {  % draw a bar
   /an exch def
   /y2 exch def
   /x2 exch def
   /y1 exch def
   /x1 exch def
   /w2 x2 x1 sub 2 div EU def
   /h2 y2 y1 sub 2 div EU def
   gsave
   x1 x2 add 2 div EU y1 y2 add 2 div EU translate
   an rotate
   newpath
   w2     h2     moveto
   w2 neg h2     lineto
   w2 neg h2 neg lineto
   w2     h2 neg lineto
   closepath
   fill
   grestore
   } def

/c {  % draw a circle
   /lw exch def
   /rd exch def
   /y  exch def
   /x  exch def
   newpath
   lw EU setlinewidth
   x EU y EU rd EU 0 360 arc
   stroke
   } def

/a {  % draw an arc
   /lc exch def
   /ae exch def
   /as exch def
   /lw exch def
   /rd exch def
   /y  exch def
   /x  exch def
   lw rd 2 mul gt {
     /rd rd lw 2 div add 2 div def
     /lw rd 2 mul def
     } if
   currentlinecap currentlinejoin
   lc setlinecap 0 setlinejoin
   newpath
   lw EU setlinewidth
   x EU y EU rd EU as ae arc
   stroke
   setlinejoin setlinecap
   } def

/p {  % draw a pie
   /d exch def
   /y exch def
   /x exch def
   newpath
   x EU y EU d 2 div EU 0 360 arc
   fill
   } def

/edge { 0.20710678119 mul } def

/o {  % draw an octagon
   /an exch def
   /dy exch def
   /dx exch def
   /y  exch def
   /x  exch def
   gsave
   x EU y EU translate
   an dx dy lt { 90 add /dx dy /dy dx def def } if rotate
   newpath
      0 dx 2 div sub EU                    0 dy edge  add EU moveto
      0 dx dy sub 2 div sub dy edge sub EU 0 dy 2 div add EU lineto
      0 dx dy sub 2 div add dy edge add EU 0 dy 2 div add EU lineto
      0 dx 2 div add EU                    0 dy edge  add EU lineto
      0 dx 2 div add EU                    0 dy edge  sub EU lineto
      0 dx dy sub 2 div add dy edge add EU 0 dy 2 div sub EU lineto
      0 dx dy sub 2 div sub dy edge sub EU 0 dy 2 div sub EU lineto
      0 dx 2 div sub EU                    0 dy edge  sub EU lineto
   closepath
   fill
   grestore
   } def

% redefine our /h function with a fixed diameter
/h { % draw a hole
 /d exch def
 % Still need to pop diam off stack
 d 2500 gt {
 /d 2500 def
 % But override it to 0.5mm
 } if
 /y exch def
 /x exch def
 d 0 gt {
 newpath
 x EU y EU d 2 div EU 0 360 arc
 currentgray dup
 1 exch sub setgray
 fill
 setgray
 } if
 } def
% Remainder of Header2 copied from define for PS device
% the real drawing size:

/MinDrawX      0 EU def
/MinDrawY      0 EU def
/MaxDrawX 509144 EU def
/MaxDrawY 350545 EU def

% the usable page size:

/LeftMargin 0.25 inch def % change these if drawing gets clipped!
/BotMargin 0.25 inch def
/PageWidth  7.7500 inch def
/PageHeight 11.0000 inch def

% are we going to rotate?:

/RotateDrawing 0 0 ne def

% Media size functions:

/AbortMessage {  % Show a message in a box and stop printing
   /h 100 def
   /Courier findfont 12 scalefont setfont
   mediawidth pagemargin sub h 1 setpage
   newpath
   0 0 moveto
   0 h rlineto
   mediawidth pagemargin sub 0 rlineto
   0 h neg rlineto
   closepath
   5 setlinewidth
   stroke
   newpath 50 60 moveto (ERROR: Jobsize exceeds physical printing area!) show
   newpath 50 40 moveto (       Job has been aborted!) show
   showpage
   stop
   } def

/SelectPage {  % Select the page identified by Row and Column
   /Column exch def
   /Row    exch def

   % the actually exposed area (if the machine knows these parameters!):

   /DrawX MaxDrawX MinDrawX sub def
   /DrawY MaxDrawY MinDrawY sub def
   statusdict /setpage known
   statusdict /mediawidth known and
   statusdict /medialength known and
   statusdict /pagemargin known and {
      % this is for machines that can tell the media size:
      statusdict begin
         /MediaW mediawidth pagemargin sub def
         DrawX DrawY ge {
            DrawX MediaW le DrawY medialength le and {
               MediaW DrawY 1 setpage
               MediaW DrawX sub 2 div 0 translate
               }{
            DrawY MediaW le DrawX medialength le and {
               MediaW DrawX 0 setpage
               0 MediaW DrawY sub 2 div translate
               }{
               AbortMessage
               } ifelse
               } ifelse
            }{
            DrawY MediaW le DrawX medialength le and {
               MediaW DrawX 0 setpage
               0 MediaW DrawY sub 2 div translate
               }{
            DrawX MediaW le DrawY medialength le and {
               MediaW DrawY 1 setpage
               MediaW DrawX sub 2 div 0 translate
               }{
               AbortMessage
               } ifelse
               } ifelse
            } ifelse
         end
      }{
      % this is for machines that can NOT tell the media size:
      % (Ghostscript doesn't like this!)
      /Product product length string def
      /i 0 def
      product { dup 97 lt { 32 add } if Product exch i exch put /i i 1 add def } forall 
      Product (ghostscript) search dup /IsGhostscript exch def
      { pop pop } if
      pop
      IsGhostscript not {
         statusdict /setpage known {
            statusdict begin
               RotateDrawing {
                  LeftMargin PageHeight add BotMargin DrawY add
                  }{
                  BotMargin DrawY add LeftMargin DrawX add 
                  } ifelse
               0 setpage
               end
            } if
         } if
      % set clipping boundary:
      newpath
      LeftMargin BotMargin moveto
      0 PageHeight rlineto
      PageWidth  0 rlineto
      0 PageHeight neg rlineto
      closepath
      clip
      % set the origin:
      LeftMargin BotMargin translate
      RotateDrawing {
         0 PageHeight translate
         -90 rotate
         PageHeight Column mul neg PageWidth Row mul neg translate
         }{
         PageWidth Column mul neg PageHeight Row mul neg translate
         } ifelse
      } ifelse
   % move the lower left corner of the drawing to the origin:
   MinDrawX neg MinDrawY neg translate
   
   % Linestyle:
   
   1 setlinecap
   1 setlinejoin
   
   } def

% TheDrawing

gsave 0 0 SelectPage
254572 67109 8500 14000 c
254572 307109 8500 14000 c
78362 260849 8500 13990 c
31362 230849 8500 13990 c
78362 200849 8500 13990 c
334572 113749 2750 2500 c
334572 93749 2750 2500 c
334572 73749 2750 2500 c
334572 303649 2750 2500 c
334572 283649 2750 2500 c
254572 149009 3540 4080 c
254572 225209 3540 4080 c
217216 238343 230216 253343 270.0 b
217216 221343 230216 236343 270.0 b
221112 199159 226112 213159 270.0 b
221112 186559 226112 200559 270.0 b
221112 173859 226112 187859 270.0 b
221112 161159 226112 175159 270.0 b
153032 199159 158032 213159 270.0 b
153032 186459 158032 200459 270.0 b
153032 173759 158032 187759 270.0 b
153032 161059 158032 175059 270.0 b
174928 221295 187928 236295 0.0 b
191928 221295 204928 236295 0.0 b
254572 225209 21590 21590 0.0 o
254572 149009 21590 21590 0.0 o
274170 186193 287170 201193 180.0 b
257170 186193 270170 201193 180.0 b
149076 221261 162076 236261 90.0 b
149076 238261 162076 253261 90.0 b
150576 127503 160576 138503 90.0 b
150576 144503 160576 155503 90.0 b
151576 95967 159576 103967 0.0 b
151576 110967 159576 118967 0.0 b
78360 200845 43180 p
78360 260845 43180 p
31360 230845 43180 p
50090 54007 104090 116007 0.0 b
49290 150007 59290 166007 0.0 b
94890 150007 104890 166007 0.0 b
24108 167649 37108 182649 270.0 b
24108 150649 37108 165649 270.0 b
116056 167395 129056 182395 270.0 b
116056 150395 129056 165395 270.0 b
334572 113751 16256 p
334572 93751 16256 p
334572 73751 16256 p
334572 303649 14478 p
334572 283649 14478 p
195812 114073 208812 129073 90.0 b
195812 131073 208812 146073 90.0 b
173460 113565 186460 128565 90.0 b
173460 130565 186460 145565 90.0 b
504572 337109 4572 337109 4064 l
4572 337109 4572 37109 4064 l
4572 37109 504572 37109 4064 l
504572 37109 504572 337109 4064 l
64370 147903 61394 144927 4064 l
61394 144927 47186 144927 4064 l
47186 144927 44266 147847 4064 l
44266 147847 41490 147847 4064 l
41490 147847 40212 146569 4064 l
40212 146569 21004 146569 4064 l
21004 146569 18028 149545 4064 l
18028 149545 18028 166753 4064 l
18028 166753 18287 167013 4064 l
18287 167013 18028 167980 4064 l
18028 167980 18028 173931 4064 l
18028 173931 29390 173931 4064 l
29390 173931 29390 176367 4064 l
29390 176367 18028 176367 4064 l
18028 176367 18028 182318 4064 l
18028 182318 18374 183610 4064 l
18374 183610 19043 184768 4064 l
19043 184768 19989 185714 4064 l
19989 185714 21147 186383 4064 l
21147 186383 22439 186729 4064 l
22439 186729 29390 186729 4064 l
29390 186729 29390 176367 4064 l
29390 176367 31826 176367 4064 l
31826 176367 31826 186729 4064 l
31826 186729 38777 186729 4064 l
38777 186729 40069 186383 4064 l
40069 186383 41227 185714 4064 l
41227 185714 42173 184768 4064 l
42173 184768 42842 183610 4064 l
42842 183610 43188 182318 4064 l
43188 182318 43188 176367 4064 l
43188 176367 31826 176367 4064 l
31826 176367 31826 173931 4064 l
31826 173931 43188 173931 4064 l
43188 173931 43188 168167 4064 l
43188 168167 44130 168167 4064 l
44130 168167 44130 178796 4064 l
44130 178796 45677 182530 4064 l
45677 182530 53577 190431 4064 l
53577 190431 53508 190551 4064 l
53508 190551 51690 197334 4064 l
51690 197334 51690 204356 4064 l
51690 204356 53508 211139 4064 l
53508 211139 57019 217221 4064 l
57019 217221 61984 222187 4064 l
61984 222187 68066 225698 4064 l
68066 225698 74849 227515 4064 l
74849 227515 81871 227515 4064 l
81871 227515 88654 225698 4064 l
88654 225698 94736 222187 4064 l
94736 222187 99701 217221 4064 l
99701 217221 103213 211139 4064 l
103213 211139 105030 204356 4064 l
105030 204356 105030 197334 4064 l
105030 197334 103213 190551 4064 l
103213 190551 99701 184469 4064 l
99701 184469 94736 179504 4064 l
94736 179504 88654 175993 4064 l
88654 175993 81871 174175 4064 l
81871 174175 74849 174175 4064 l
74849 174175 68066 175993 4064 l
68066 175993 67945 176062 4064 l
67945 176062 64450 172567 4064 l
64450 172567 64450 155986 4064 l
64450 155986 64370 155793 4064 l
64370 155793 64370 147903 4064 l
35834 204511 33392 204235 4064 l
33392 204235 33392 228813 4064 l
33392 228813 29328 228813 4064 l
29328 228813 29328 204235 4064 l
29328 204235 26886 204511 4064 l
26886 204511 23965 205177 4064 l
23965 205177 21138 206167 4064 l
21138 206167 18439 207466 4064 l
18439 207466 15903 209060 4064 l
15903 209060 13561 210928 4064 l
13561 210928 11442 213046 4064 l
11442 213046 9575 215388 4064 l
9575 215388 7981 217924 4064 l
7981 217924 6681 220623 4064 l
6681 220623 5692 223450 4064 l
5692 223450 5025 226371 4064 l
5025 226371 4750 228813 4064 l
4750 228813 29328 228813 4064 l
29328 228813 29328 232877 4064 l
29328 232877 4750 232877 4064 l
4750 232877 5025 235320 4064 l
5025 235320 5692 238240 4064 l
5692 238240 6681 241068 4064 l
6681 241068 7981 243766 4064 l
7981 243766 9575 246303 4064 l
9575 246303 11442 248645 4064 l
11442 248645 13561 250763 4064 l
13561 250763 15903 252631 4064 l
15903 252631 18439 254224 4064 l
18439 254224 21138 255524 4064 l
21138 255524 23965 256513 4064 l
23965 256513 26886 257180 4064 l
26886 257180 29328 257455 4064 l
29328 257455 29328 232877 4064 l
29328 232877 33392 232877 4064 l
33392 232877 33392 257455 4064 l
33392 257455 35834 257180 4064 l
35834 257180 38755 256513 4064 l
38755 256513 41582 255524 4064 l
41582 255524 44281 254224 4064 l
44281 254224 46818 252631 4064 l
46818 252631 49159 250763 4064 l
49159 250763 51278 248645 4064 l
51278 248645 53145 246303 4064 l
53145 246303 54739 243766 4064 l
54739 243766 56039 241068 4064 l
56039 241068 57028 238240 4064 l
57028 238240 57695 235320 4064 l
57695 235320 57970 232877 4064 l
57970 232877 33392 232877 4064 l
33392 232877 33392 228813 4064 l
33392 228813 57970 228813 4064 l
57970 228813 57695 226371 4064 l
57695 226371 57028 223450 4064 l
57028 223450 56039 220623 4064 l
56039 220623 54739 217924 4064 l
54739 217924 53145 215388 4064 l
53145 215388 51278 213046 4064 l
51278 213046 49159 210928 4064 l
49159 210928 46818 209060 4064 l
46818 209060 44281 207466 4064 l
44281 207466 41582 206167 4064 l
41582 206167 38755 205177 4064 l
38755 205177 35834 204511 4064 l
238697 142434 238697 155585 4064 l
238697 155585 245816 162704 4064 l
245816 162704 235789 172731 4064 l
235789 172731 235282 172731 4064 l
235282 172731 235346 172620 4064 l
235346 172620 235692 171328 4064 l
235692 171328 235692 168159 4064 l
235692 168159 223612 168159 4064 l
223612 168159 223612 168159 4064 l
223612 168159 235692 168159 4064 l
235692 168159 235692 164990 4064 l
235692 164990 235346 163698 4064 l
235346 163698 234677 162540 4064 l
234677 162540 233731 161594 4064 l
233731 161594 232573 160925 4064 l
232573 160925 231281 160579 4064 l
231281 160579 223612 160579 4064 l
223612 160579 223612 168159 4064 l
223612 168159 223612 168159 4064 l
223612 168159 223612 160579 4064 l
223612 160579 215943 160579 4064 l
215943 160579 214651 160925 4064 l
214651 160925 213493 161594 4064 l
213493 161594 212547 162540 4064 l
212547 162540 211878 163698 4064 l
211878 163698 211532 164990 4064 l
211532 164990 211532 168159 4064 l
211532 168159 223612 168159 4064 l
223612 168159 223612 168159 4064 l
223612 168159 211532 168159 4064 l
211532 168159 211532 171328 4064 l
211532 171328 211878 172620 4064 l
211878 172620 212547 173778 4064 l
212547 173778 213278 174509 4064 l
213278 174509 211532 176255 4064 l
211532 176255 211532 185463 4064 l
211532 185463 213278 187209 4064 l
213278 187209 211532 188955 4064 l
211532 188955 211532 198163 4064 l
211532 198163 213228 199859 4064 l
213228 199859 211532 201555 4064 l
211532 201555 211532 210763 4064 l
211532 210763 214508 213739 4064 l
214508 213739 215484 213739 4064 l
215484 213739 215484 217263 4064 l
215484 217263 214112 217263 4064 l
214112 217263 211136 220239 4064 l
211136 220239 211136 220715 4064 l
211136 220715 210008 220715 4064 l
210008 220715 210008 219191 4064 l
210008 219191 207032 216215 4064 l
207032 216215 172824 216215 4064 l
172824 216215 169848 219191 4064 l
169848 219191 169848 220667 4064 l
169848 220667 168156 220667 4064 l
168156 220667 168156 220157 4064 l
168156 220157 165180 217181 4064 l
165180 217181 163704 217181 4064 l
163704 217181 163704 213739 4064 l
163704 213739 164636 213739 4064 l
164636 213739 167612 210763 4064 l
167612 210763 167612 201587 4064 l
167612 201587 169245 201587 4064 l
169245 201587 172232 200350 4064 l
172232 200350 206916 165666 4064 l
206916 165666 209203 163379 4064 l
209203 163379 210440 160392 4064 l
210440 160392 210440 150153 4064 l
210440 150153 211916 150153 4064 l
211916 150153 214892 147177 4064 l
214892 147177 214892 112969 4064 l
214892 112969 211916 109993 4064 l
211916 109993 210440 109993 4064 l
210440 109993 210440 107975 4064 l
210440 107975 274080 107975 4064 l
274080 107975 274100 107983 4064 l
274100 107983 277336 107983 4064 l
277336 107983 280327 106745 4064 l
280327 106745 285184 101887 4064 l
285184 101887 324029 101887 4064 l
324029 101887 325893 103751 4064 l
325893 103751 324498 105147 4064 l
324498 105147 323276 106829 4064 l
323276 106829 322332 108681 4064 l
322332 108681 321689 110658 4064 l
321689 110658 321364 112712 4064 l
321364 112712 321364 113751 4064 l
321364 113751 334572 113751 4064 l
334572 113751 334572 113751 4064 l
334572 113751 321364 113751 4064 l
321364 113751 321364 114791 4064 l
321364 114791 321689 116844 4064 l
321689 116844 322332 118821 4064 l
322332 118821 323276 120674 4064 l
323276 120674 324498 122356 4064 l
324498 122356 325968 123826 4064 l
325968 123826 327650 125048 4064 l
327650 125048 329502 125992 4064 l
329502 125992 331479 126634 4064 l
331479 126634 333533 126959 4064 l
333533 126959 334572 126959 4064 l
334572 126959 334572 113752 4064 l
334572 113752 334572 113752 4064 l
334572 113752 334572 126959 4064 l
334572 126959 335612 126959 4064 l
335612 126959 337665 126634 4064 l
337665 126634 339642 125992 4064 l
339642 125992 341495 125048 4064 l
341495 125048 343176 123826 4064 l
343176 123826 344647 122356 4064 l
344647 122356 345869 120674 4064 l
345869 120674 346812 118821 4064 l
346812 118821 347455 116844 4064 l
347455 116844 347780 114791 4064 l
347780 114791 347780 113751 4064 l
347780 113751 334572 113751 4064 l
334572 113751 334572 113751 4064 l
334572 113751 347780 113751 4064 l
347780 113751 347780 112712 4064 l
347780 112712 347455 110658 4064 l
347455 110658 346812 108681 4064 l
346812 108681 345869 106829 4064 l
345869 106829 344647 105147 4064 l
344647 105147 343251 103751 4064 l
343251 103751 345769 101233 4064 l
345769 101233 347780 96378 4064 l
347780 96378 347780 91124 4064 l
347780 91124 345769 86270 4064 l
345769 86270 343251 83751 4064 l
343251 83751 345769 81233 4064 l
345769 81233 347780 76378 4064 l
347780 76378 347780 71124 4064 l
347780 71124 345769 66270 4064 l
345769 66270 342054 62554 4064 l
342054 62554 337199 60543 4064 l
337199 60543 331945 60543 4064 l
331945 60543 327090 62554 4064 l
327090 62554 324029 65615 4064 l
324029 65615 283178 65615 4064 l
283178 65615 280187 66854 4064 l
280187 66854 265990 81051 4064 l
265990 81051 264717 81051 4064 l
264717 81051 269011 76757 4064 l
269011 76757 271604 70497 4064 l
271604 70497 271604 63721 4064 l
271604 63721 269011 57461 4064 l
269011 57461 264220 52670 4064 l
264220 52670 257960 50077 4064 l
257960 50077 251184 50077 4064 l
251184 50077 244924 52670 4064 l
244924 52670 240133 57461 4064 l
240133 57461 237540 63721 4064 l
237540 63721 237540 70497 4064 l
237540 70497 240133 76757 4064 l
240133 76757 244427 81051 4064 l
244427 81051 195107 81051 4064 l
195107 81051 192120 82289 4064 l
192120 82289 175356 99053 4064 l
175356 99053 173069 101339 4064 l
173069 101339 171832 104326 4064 l
171832 104326 171832 109485 4064 l
171832 109485 170356 109485 4064 l
170356 109485 167380 112461 4064 l
167380 112461 167380 146669 4064 l
167380 146669 170356 149645 4064 l
170356 149645 171832 149645 4064 l
171832 149645 171832 165569 4064 l
171832 165569 167612 169789 4064 l
167612 169789 167612 163455 4064 l
167612 163455 164636 160479 4064 l
164636 160479 163704 160479 4064 l
163704 160479 163704 159559 4064 l
163704 159559 166156 157107 4064 l
166156 157107 166156 142899 4064 l
166156 142899 164760 141503 4064 l
164760 141503 166156 140107 4064 l
166156 140107 166156 125899 4064 l
166156 125899 163704 123447 4064 l
163704 123447 163704 122023 4064 l
163704 122023 164656 121071 4064 l
164656 121071 164656 108863 4064 l
164656 108863 163260 107467 4064 l
163260 107467 163641 107086 4064 l
163641 107086 164310 105928 4064 l
164310 105928 164656 104636 4064 l
164656 104636 164656 99967 4064 l
164656 99967 155576 99967 4064 l
155576 99967 155576 99967 4064 l
155576 99967 164656 99967 4064 l
164656 99967 164656 95298 4064 l
164656 95298 164310 94006 4064 l
164310 94006 163641 92848 4064 l
163641 92848 162695 91902 4064 l
162695 91902 161537 91233 4064 l
161537 91233 160245 90887 4064 l
160245 90887 155576 90887 4064 l
155576 90887 155576 99967 4064 l
155576 99967 155576 99967 4064 l
155576 99967 155576 90887 4064 l
155576 90887 150907 90887 4064 l
150907 90887 149615 91233 4064 l
149615 91233 148457 91902 4064 l
148457 91902 147511 92848 4064 l
147511 92848 146842 94006 4064 l
146842 94006 146496 95298 4064 l
146496 95298 146496 99967 4064 l
146496 99967 155576 99967 4064 l
155576 99967 155576 99967 4064 l
155576 99967 146496 99967 4064 l
146496 99967 146496 104636 4064 l
146496 104636 146842 105928 4064 l
146842 105928 147511 107086 4064 l
147511 107086 147892 107467 4064 l
147892 107467 146496 108863 4064 l
146496 108863 146496 121071 4064 l
146496 121071 147448 122023 4064 l
147448 122023 147448 123447 4064 l
147448 123447 144996 125899 4064 l
144996 125899 144996 140107 4064 l
144996 140107 146392 141503 4064 l
146392 141503 144996 142899 4064 l
144996 142899 144996 154481 4064 l
144996 154481 143670 153155 4064 l
143670 153155 141520 151005 4064 l
141520 151005 138533 149767 4064 l
138533 149767 135136 149767 4064 l
135136 149767 135136 149291 4064 l
135136 149291 132160 146315 4064 l
132160 146315 112952 146315 4064 l
112952 146315 111532 147735 4064 l
111532 147735 109802 147735 4064 l
109802 147735 106994 144927 4064 l
106994 144927 92786 144927 4064 l
92786 144927 89810 147903 4064 l
89810 147903 89810 168111 4064 l
89810 168111 92786 171087 4064 l
92786 171087 106994 171087 4064 l
106994 171087 109970 168111 4064 l
109970 168111 109970 168055 4064 l
109970 168055 109976 168055 4064 l
109976 168055 109976 173677 4064 l
109976 173677 121338 173677 4064 l
121338 173677 121338 176113 4064 l
121338 176113 109976 176113 4064 l
109976 176113 109976 182064 4064 l
109976 182064 110322 183356 4064 l
110322 183356 110991 184514 4064 l
110991 184514 111937 185460 4064 l
111937 185460 113095 186129 4064 l
113095 186129 114387 186475 4064 l
114387 186475 121338 186475 4064 l
121338 186475 121338 176113 4064 l
121338 176113 123774 176113 4064 l
123774 176113 123774 186475 4064 l
123774 186475 130725 186475 4064 l
130725 186475 130938 186418 4064 l
130938 186418 130938 202048 4064 l
130938 202048 132175 205035 4064 l
132175 205035 137763 210623 4064 l
137763 210623 140050 212910 4064 l
140050 212910 143037 214147 4064 l
143037 214147 147448 214147 4064 l
147448 214147 147448 217181 4064 l
147448 217181 145972 217181 4064 l
145972 217181 142996 220157 4064 l
142996 220157 142996 237365 4064 l
142996 237365 143255 237625 4064 l
143255 237625 142996 238592 4064 l
142996 238592 142996 244543 4064 l
142996 244543 154358 244543 4064 l
154358 244543 154358 246979 4064 l
154358 246979 142996 246979 4064 l
142996 246979 142996 252930 4064 l
142996 252930 143342 254222 4064 l
143342 254222 144011 255380 4064 l
144011 255380 144957 256326 4064 l
144957 256326 146115 256995 4064 l
146115 256995 147407 257341 4064 l
147407 257341 154358 257341 4064 l
154358 257341 154358 246979 4064 l
154358 246979 156794 246979 4064 l
156794 246979 156794 257341 4064 l
156794 257341 163745 257341 4064 l
163745 257341 165037 256995 4064 l
165037 256995 166195 256326 4064 l
166195 256326 167141 255380 4064 l
167141 255380 167810 254222 4064 l
167810 254222 168156 252930 4064 l
168156 252930 168156 246979 4064 l
168156 246979 156794 246979 4064 l
156794 246979 156794 244543 4064 l
156794 244543 168156 244543 4064 l
168156 244543 168156 238592 4064 l
168156 238592 167897 237625 4064 l
167897 237625 168156 237365 4064 l
168156 237365 168156 236923 4064 l
168156 236923 169848 236923 4064 l
169848 236923 169848 238399 4064 l
169848 238399 172824 241375 4064 l
172824 241375 207032 241375 4064 l
207032 241375 210008 238399 4064 l
210008 238399 210008 236971 4064 l
210008 236971 211136 236971 4064 l
211136 236971 211136 237447 4064 l
211136 237447 211395 237707 4064 l
211395 237707 211136 238674 4064 l
211136 238674 211136 244625 4064 l
211136 244625 222498 244625 4064 l
222498 244625 222498 247061 4064 l
222498 247061 211136 247061 4064 l
211136 247061 211136 253012 4064 l
211136 253012 211482 254304 4064 l
211482 254304 212151 255462 4064 l
212151 255462 213097 256408 4064 l
213097 256408 214255 257077 4064 l
214255 257077 215547 257423 4064 l
215547 257423 222498 257423 4064 l
222498 257423 222498 247061 4064 l
222498 247061 224934 247061 4064 l
224934 247061 224934 257423 4064 l
224934 257423 231885 257423 4064 l
231885 257423 233177 257077 4064 l
233177 257077 234335 256408 4064 l
234335 256408 235281 255462 4064 l
235281 255462 235950 254304 4064 l
235950 254304 236296 253012 4064 l
236296 253012 236296 247061 4064 l
236296 247061 224934 247061 4064 l
224934 247061 224934 244625 4064 l
224934 244625 236296 244625 4064 l
236296 244625 236296 238674 4064 l
236296 238674 236037 237707 4064 l
236037 237707 236296 237447 4064 l
236296 237447 236296 220239 4064 l
236296 220239 233320 217263 4064 l
233320 217263 231740 217263 4064 l
231740 217263 231740 213739 4064 l
231740 213739 232716 213739 4064 l
232716 213739 235692 210763 4064 l
235692 210763 235692 201687 4064 l
235692 201687 250168 201687 4064 l
250168 201687 252090 201706 4064 l
252090 201706 252090 203297 4064 l
252090 203297 255066 206273 4064 l
255066 206273 289274 206273 4064 l
289274 206273 292250 203297 4064 l
292250 203297 292250 201709 4064 l
292250 201709 296732 201709 4064 l
296732 201709 326436 231413 4064 l
326436 231413 326436 274364 4064 l
326436 274364 324128 276671 4064 l
324128 276671 322253 281199 4064 l
322253 281199 322253 286100 4064 l
322253 286100 324128 290627 4064 l
324128 290627 327246 293745 4064 l
327246 293745 326547 294253 4064 l
326547 294253 325176 295624 4064 l
325176 295624 324036 297193 4064 l
324036 297193 323156 298920 4064 l
323156 298920 322556 300765 4064 l
322556 300765 322253 302680 4064 l
322253 302680 322253 303649 4064 l
322253 303649 334572 303649 4064 l
334572 303649 334572 303649 4064 l
334572 303649 322253 303649 4064 l
322253 303649 322253 304619 4064 l
322253 304619 322556 306534 4064 l
322556 306534 323156 308378 4064 l
323156 308378 324036 310106 4064 l
324036 310106 325176 311675 4064 l
325176 311675 326547 313046 4064 l
326547 313046 328115 314185 4064 l
328115 314185 329843 315066 4064 l
329843 315066 331687 315665 4064 l
331687 315665 333602 315968 4064 l
333602 315968 334572 315968 4064 l
334572 315968 334572 303650 4064 l
334572 303650 334572 303650 4064 l
334572 303650 334572 315968 4064 l
334572 315968 335542 315968 4064 l
335542 315968 337457 315665 4064 l
337457 315665 339301 315066 4064 l
339301 315066 341029 314185 4064 l
341029 314185 342597 313046 4064 l
342597 313046 343968 311675 4064 l
343968 311675 345108 310106 4064 l
345108 310106 345988 308378 4064 l
345988 308378 346588 306534 4064 l
346588 306534 346891 304619 4064 l
346891 304619 346891 303649 4064 l
346891 303649 334572 303649 4064 l
334572 303649 334572 303649 4064 l
334572 303649 346891 303649 4064 l
346891 303649 346891 302680 4064 l
346891 302680 346588 300765 4064 l
346588 300765 345988 298920 4064 l
345988 298920 345108 297193 4064 l
345108 297193 343968 295624 4064 l
343968 295624 342597 294253 4064 l
342597 294253 341898 293745 4064 l
341898 293745 345016 290627 4064 l
345016 290627 346891 286100 4064 l
346891 286100 346891 281199 4064 l
346891 281199 345016 276671 4064 l
345016 276671 342708 274364 4064 l
342708 274364 342708 226425 4064 l
342708 226425 341469 223435 4064 l
341469 223435 306999 188965 4064 l
306999 188965 304711 186676 4064 l
304711 186676 301720 185437 4064 l
301720 185437 292250 185437 4064 l
292250 185437 292250 184089 4064 l
292250 184089 289274 181113 4064 l
289274 181113 255066 181113 4064 l
255066 181113 252090 184089 4064 l
252090 184089 252090 185450 4064 l
252090 185450 251864 185447 4064 l
251864 185447 251825 185431 4064 l
251825 185431 250248 185431 4064 l
250248 185431 248672 185416 4064 l
248672 185416 248633 185431 4064 l
248633 185431 246079 185431 4064 l
246079 185431 259240 172270 4064 l
259240 172270 261527 169983 4064 l
261527 169983 262764 166996 4064 l
262764 166996 262764 163268 4064 l
262764 163268 270447 155585 4064 l
270447 155585 270447 142434 4064 l
270447 142434 261148 133134 4064 l
261148 133134 247996 133134 4064 l
247996 133134 238697 142434 4064 l
237540 303721 237540 310497 4064 l
237540 310497 240133 316757 4064 l
240133 316757 244924 321548 4064 l
244924 321548 251184 324141 4064 l
251184 324141 257960 324141 4064 l
257960 324141 264220 321548 4064 l
264220 321548 269011 316757 4064 l
269011 316757 271604 310497 4064 l
271604 310497 271604 303721 4064 l
271604 303721 269011 297461 4064 l
269011 297461 264220 292670 4064 l
264220 292670 257960 290077 4064 l
257960 290077 251184 290077 4064 l
251184 290077 244924 292670 4064 l
244924 292670 240133 297461 4064 l
240133 297461 237540 303721 4064 l
261148 209334 255080 209334 4064 l
255080 209334 255080 224701 4064 l
255080 224701 254064 224701 4064 l
254064 224701 254064 209334 4064 l
254064 209334 247996 209334 4064 l
247996 209334 238697 218634 4064 l
238697 218634 238697 224701 4064 l
238697 224701 254064 224701 4064 l
254064 224701 254064 225717 4064 l
254064 225717 238697 225717 4064 l
238697 225717 238697 231785 4064 l
238697 231785 247996 241084 4064 l
247996 241084 254064 241084 4064 l
254064 241084 254064 225717 4064 l
254064 225717 255080 225717 4064 l
255080 225717 255080 241084 4064 l
255080 241084 261148 241084 4064 l
261148 241084 270447 231785 4064 l
270447 231785 270447 225717 4064 l
270447 225717 255080 225717 4064 l
255080 225717 255080 224701 4064 l
255080 224701 270447 224701 4064 l
270447 224701 270447 218634 4064 l
270447 218634 261148 209334 4064 l
76328 287455 76328 262877 4064 l
76328 262877 80392 262877 4064 l
80392 262877 80392 287455 4064 l
80392 287455 82834 287180 4064 l
82834 287180 85755 286513 4064 l
85755 286513 88582 285524 4064 l
88582 285524 91281 284224 4064 l
91281 284224 93818 282631 4064 l
93818 282631 96159 280763 4064 l
96159 280763 98278 278645 4064 l
98278 278645 100145 276303 4064 l
100145 276303 101739 273766 4064 l
101739 273766 103039 271068 4064 l
103039 271068 104028 268240 4064 l
104028 268240 104695 265320 4064 l
104695 265320 104970 262877 4064 l
104970 262877 80392 262877 4064 l
80392 262877 80392 258813 4064 l
80392 258813 104970 258813 4064 l
104970 258813 104695 256371 4064 l
104695 256371 104028 253450 4064 l
104028 253450 103039 250623 4064 l
103039 250623 101739 247924 4064 l
101739 247924 100145 245388 4064 l
100145 245388 98278 243046 4064 l
98278 243046 96159 240928 4064 l
96159 240928 93818 239060 4064 l
93818 239060 91281 237466 4064 l
91281 237466 88582 236167 4064 l
88582 236167 85755 235177 4064 l
85755 235177 82834 234511 4064 l
82834 234511 80392 234235 4064 l
80392 234235 80392 258813 4064 l
80392 258813 76328 258813 4064 l
76328 258813 76328 234235 4064 l
76328 234235 73886 234511 4064 l
73886 234511 70965 235177 4064 l
70965 235177 68138 236167 4064 l
68138 236167 65439 237466 4064 l
65439 237466 62903 239060 4064 l
62903 239060 60561 240928 4064 l
60561 240928 58442 243046 4064 l
58442 243046 56575 245388 4064 l
56575 245388 54981 247924 4064 l
54981 247924 53681 250623 4064 l
53681 250623 52692 253450 4064 l
52692 253450 52025 256371 4064 l
52025 256371 51750 258813 4064 l
51750 258813 76328 258813 4064 l
76328 258813 76328 262877 4064 l
76328 262877 51750 262877 4064 l
51750 262877 52025 265320 4064 l
52025 265320 52692 268240 4064 l
52692 268240 53681 271068 4064 l
53681 271068 54981 273766 4064 l
54981 273766 56575 276303 4064 l
56575 276303 58442 278645 4064 l
58442 278645 60561 280763 4064 l
60561 280763 62903 282631 4064 l
62903 282631 65439 284224 4064 l
65439 284224 68138 285524 4064 l
68138 285524 70965 286513 4064 l
70965 286513 73886 287180 4064 l
73886 287180 76328 287455 4064 l
79122 48927 79122 82975 4064 l
79122 82975 75058 82975 4064 l
75058 82975 75058 48927 4064 l
75058 48927 49421 48927 4064 l
49421 48927 48129 49273 4064 l
48129 49273 46971 49942 4064 l
46971 49942 46025 50888 4064 l
46025 50888 45356 52046 4064 l
45356 52046 45010 53338 4064 l
45010 53338 45010 82975 4064 l
45010 82975 75058 82975 4064 l
75058 82975 75058 87039 4064 l
75058 87039 45010 87039 4064 l
45010 87039 45010 116676 4064 l
45010 116676 45356 117968 4064 l
45356 117968 46025 119126 4064 l
46025 119126 46971 120072 4064 l
46971 120072 48129 120741 4064 l
48129 120741 49421 121087 4064 l
49421 121087 75058 121087 4064 l
75058 121087 75058 87039 4064 l
75058 87039 79122 87039 4064 l
79122 87039 79122 121087 4064 l
79122 121087 104759 121087 4064 l
104759 121087 106051 120741 4064 l
106051 120741 107209 120072 4064 l
107209 120072 108155 119126 4064 l
108155 119126 108824 117968 4064 l
108824 117968 109170 116676 4064 l
109170 116676 109170 87039 4064 l
109170 87039 79122 87039 4064 l
79122 87039 79122 82975 4064 l
79122 82975 109170 82975 4064 l
109170 82975 109170 53338 4064 l
109170 53338 108824 52046 4064 l
108824 52046 108155 50888 4064 l
108155 50888 107209 49942 4064 l
107209 49942 106051 49273 4064 l
106051 49273 104759 48927 4064 l
104759 48927 79122 48927 4064 l
504572 37109 4572 37109 4064 l
504572 40792 4572 40792 4064 l
504572 44475 4572 44475 4064 l
504572 48158 4572 48158 4064 l
504572 51841 262219 51841 4064 l
246925 51841 108705 51841 4064 l
79122 51841 75058 51841 4064 l
45475 51841 4572 51841 4064 l
504572 55524 267074 55524 4064 l
242070 55524 109170 55524 4064 l
79122 55524 75058 55524 4064 l
45010 55524 4572 55524 4064 l
504572 59207 269734 59207 4064 l
239410 59207 109170 59207 4064 l
79122 59207 75058 59207 4064 l
45010 59207 4572 59207 4064 l
504572 62890 342390 62890 4064 l
326754 62890 271260 62890 4064 l
237884 62890 109170 62890 4064 l
79122 62890 75058 62890 4064 l
45010 62890 4572 62890 4064 l
504572 66573 345895 66573 4064 l
280865 66573 271604 66573 4064 l
237540 66573 109170 66573 4064 l
79122 66573 75058 66573 4064 l
45010 66573 4572 66573 4064 l
504572 70256 347421 70256 4064 l
276785 70256 271604 70256 4064 l
237540 70256 109170 70256 4064 l
79122 70256 75058 70256 4064 l
45010 70256 4572 70256 4064 l
504572 73939 347780 73939 4064 l
273102 73939 270178 73939 4064 l
238966 73939 109170 73939 4064 l
79122 73939 75058 73939 4064 l
45010 73939 4572 73939 4064 l
504572 77622 347265 77622 4064 l
269419 77622 268146 77622 4064 l
240998 77622 109170 77622 4064 l
79122 77622 75058 77622 4064 l
45010 77622 4572 77622 4064 l
504572 81305 345697 81305 4064 l
194494 81305 109170 81305 4064 l
79122 81305 75058 81305 4064 l
45010 81305 4572 81305 4064 l
504572 84988 344488 84988 4064 l
189420 84988 79122 84988 4064 l
75058 84988 4572 84988 4064 l
504572 88671 346764 88671 4064 l
185737 88671 109170 88671 4064 l
79122 88671 75058 88671 4064 l
45010 88671 4572 88671 4064 l
504572 92354 347780 92354 4064 l
182054 92354 163147 92354 4064 l
155576 92354 155576 92354 4064 l
148005 92354 109170 92354 4064 l
79122 92354 75058 92354 4064 l
45010 92354 4572 92354 4064 l
504572 96037 347780 96037 4064 l
178371 96037 164656 96037 4064 l
155576 96037 155576 96037 4064 l
146496 96037 109170 96037 4064 l
79122 96037 75058 96037 4064 l
45010 96037 4572 96037 4064 l
504572 99720 346396 99720 4064 l
174688 99720 164656 99720 4064 l
155576 99720 155576 99720 4064 l
146496 99720 109170 99720 4064 l
79122 99720 75058 99720 4064 l
45010 99720 4572 99720 4064 l
504572 103403 343599 103403 4064 l
325545 103403 283668 103403 4064 l
172214 103403 164656 103403 4064 l
146496 103403 109170 103403 4064 l
79122 103403 75058 103403 4064 l
45010 103403 4572 103403 4064 l
504572 107086 346000 107086 4064 l
323144 107086 279502 107086 4064 l
171832 107086 163641 107086 4064 l
147511 107086 109170 107086 4064 l
79122 107086 75058 107086 4064 l
45010 107086 4572 107086 4064 l
504572 110769 347472 110769 4064 l
321672 110769 212692 110769 4064 l
169072 110769 164656 110769 4064 l
146496 110769 109170 110769 4064 l
79122 110769 75058 110769 4064 l
45010 110769 4572 110769 4064 l
504572 114452 347780 114452 4064 l
334572 114452 334572 114452 4064 l
321364 114452 214892 114452 4064 l
167380 114452 164656 114452 4064 l
146496 114452 109170 114452 4064 l
79122 114452 75058 114452 4064 l
45010 114452 4572 114452 4064 l
504572 118135 347035 118135 4064 l
334572 118135 334572 118135 4064 l
322109 118135 214892 118135 4064 l
167380 118135 164656 118135 4064 l
146496 118135 108727 118135 4064 l
79122 118135 75058 118135 4064 l
45453 118135 4572 118135 4064 l
504572 121818 345037 121818 4064 l
334572 121818 334572 121818 4064 l
324107 121818 214892 121818 4064 l
167380 121818 163909 121818 4064 l
147243 121818 4572 121818 4064 l
504572 125501 340604 125501 4064 l
334572 125501 334572 125501 4064 l
328540 125501 214892 125501 4064 l
167380 125501 165758 125501 4064 l
145394 125501 4572 125501 4064 l
504572 129184 214892 129184 4064 l
167380 129184 166156 129184 4064 l
144996 129184 4572 129184 4064 l
504572 132867 214892 132867 4064 l
167380 132867 166156 132867 4064 l
144996 132867 4572 132867 4064 l
504572 136550 264564 136550 4064 l
244580 136550 214892 136550 4064 l
167380 136550 166156 136550 4064 l
144996 136550 4572 136550 4064 l
504572 140233 268247 140233 4064 l
240897 140233 214892 140233 4064 l
167380 140233 166030 140233 4064 l
145122 140233 4572 140233 4064 l
504572 143916 270447 143916 4064 l
238697 143916 214892 143916 4064 l
167380 143916 166156 143916 4064 l
144996 143916 4572 143916 4064 l
504572 147599 270447 147599 4064 l
238697 147599 214470 147599 4064 l
168310 147599 166156 147599 4064 l
144996 147599 133444 147599 4064 l
111668 147599 109666 147599 4064 l
90114 147599 64066 147599 4064 l
44514 147599 41242 147599 4064 l
19974 147599 4572 147599 4064 l
504572 151282 270447 151282 4064 l
238697 151282 210440 151282 4064 l
171832 151282 166156 151282 4064 l
144996 151282 141798 151282 4064 l
89810 151282 64370 151282 4064 l
18028 151282 4572 151282 4064 l
504572 154965 270447 154965 4064 l
238697 154965 210440 154965 4064 l
171832 154965 166156 154965 4064 l
89810 154965 64370 154965 4064 l
18028 154965 4572 154965 4064 l
504572 158648 267384 158648 4064 l
241760 158648 210440 158648 4064 l
171832 158648 164615 158648 4064 l
89810 158648 64450 158648 4064 l
18028 158648 4572 158648 4064 l
504572 162331 263701 162331 4064 l
245443 162331 234468 162331 4064 l
223612 162331 223612 162331 4064 l
212756 162331 209637 162331 4064 l
171832 162331 166488 162331 4064 l
89810 162331 64450 162331 4064 l
18028 162331 4572 162331 4064 l
504572 166014 262764 166014 4064 l
242506 166014 235692 166014 4064 l
223612 166014 223612 166014 4064 l
211532 166014 206568 166014 4064 l
171386 166014 167612 166014 4064 l
89810 166014 64450 166014 4064 l
18028 166014 4572 166014 4064 l
504572 169697 261645 169697 4064 l
238823 169697 235692 169697 4064 l
211532 169697 202885 169697 4064 l
167703 169697 167612 169697 4064 l
109976 169697 108384 169697 4064 l
91396 169697 64450 169697 4064 l
44130 169697 43188 169697 4064 l
18028 169697 4572 169697 4064 l
504572 173380 258130 173380 4064 l
212317 173380 199202 173380 4064 l
109976 173380 65263 173380 4064 l
44130 173380 43188 173380 4064 l
18028 173380 4572 173380 4064 l
504572 177063 254447 177063 4064 l
211532 177063 195519 177063 4064 l
123774 177063 121338 177063 4064 l
109976 177063 90508 177063 4064 l
44130 177063 43188 177063 4064 l
31826 177063 29390 177063 4064 l
18028 177063 4572 177063 4064 l
504572 180746 250764 180746 4064 l
211532 180746 191836 180746 4064 l
123774 180746 121338 180746 4064 l
109976 180746 95978 180746 4064 l
44938 180746 43188 180746 4064 l
31826 180746 29390 180746 4064 l
18028 180746 4572 180746 4064 l
504572 184429 292250 184429 4064 l
252090 184429 247081 184429 4064 l
211532 184429 188153 184429 4064 l
123774 184429 121338 184429 4064 l
110942 184429 99661 184429 4064 l
47576 184429 42369 184429 4064 l
31826 184429 29390 184429 4064 l
18847 184429 4572 184429 4064 l
504572 188112 306147 188112 4064 l
212375 188112 184470 188112 4064 l
130938 188112 101805 188112 4064 l
51259 188112 4572 188112 4064 l
504572 191795 309830 191795 4064 l
211532 191795 180787 191795 4064 l
130938 191795 103546 191795 4064 l
53174 191795 4572 191795 4064 l
504572 195478 313513 195478 4064 l
211532 195478 177104 195478 4064 l
130938 195478 104533 195478 4064 l
52187 195478 4572 195478 4064 l
504572 199161 317196 199161 4064 l
212530 199161 173421 199161 4064 l
130938 199161 105030 199161 4064 l
51690 199161 4572 199161 4064 l
504572 202844 320879 202844 4064 l
297867 202844 292250 202844 4064 l
252090 202844 235692 202844 4064 l
211532 202844 167612 202844 4064 l
131268 202844 105030 202844 4064 l
51690 202844 4572 202844 4064 l
504572 206527 324562 206527 4064 l
301550 206527 235692 206527 4064 l
211532 206527 167612 206527 4064 l
133667 206527 104448 206527 4064 l
52272 206527 42331 206527 4064 l
33392 206527 29328 206527 4064 l
20389 206527 4572 206527 4064 l
504572 210210 328245 210210 4064 l
305233 210210 262024 210210 4064 l
255080 210210 254064 210210 4064 l
247120 210210 235692 210210 4064 l
211532 210210 167612 210210 4064 l
137350 210210 103461 210210 4064 l
53259 210210 48260 210210 4064 l
33392 210210 29328 210210 4064 l
14460 210210 4572 210210 4064 l
504572 213893 331928 213893 4064 l
308916 213893 265707 213893 4064 l
255080 213893 254064 213893 4064 l
243437 213893 231740 213893 4064 l
215484 213893 163704 213893 4064 l
142424 213893 101623 213893 4064 l
55097 213893 51953 213893 4064 l
33392 213893 29328 213893 4064 l
10767 213893 4572 213893 4064 l
504572 217576 335611 217576 4064 l
312599 217576 269390 217576 4064 l
255080 217576 254064 217576 4064 l
239754 217576 233633 217576 4064 l
213799 217576 208393 217576 4064 l
171463 217576 165575 217576 4064 l
145577 217576 99346 217576 4064 l
57374 217576 54520 217576 4064 l
33392 217576 29328 217576 4064 l
8200 217576 4572 217576 4064 l
504572 221259 339294 221259 4064 l
316282 221259 270447 221259 4064 l
255080 221259 254064 221259 4064 l
238697 221259 236296 221259 4064 l
142996 221259 95663 221259 4064 l
61057 221259 56261 221259 4064 l
33392 221259 29328 221259 4064 l
6459 221259 4572 221259 4064 l
504572 224942 342094 224942 4064 l
319965 224942 255080 224942 4064 l
254064 224942 236296 224942 4064 l
142996 224942 89963 224942 4064 l
66757 224942 57369 224942 4064 l
33392 224942 29328 224942 4064 l
5352 224942 4572 224942 4064 l
504572 228625 342708 228625 4064 l
323648 228625 270447 228625 4064 l
255080 228625 254064 228625 4064 l
238697 228625 236296 228625 4064 l
142996 228625 57949 228625 4064 l
33392 228625 29328 228625 4064 l
4771 228625 4572 228625 4064 l
504572 232308 342708 232308 4064 l
326436 232308 269924 232308 4064 l
255080 232308 254064 232308 4064 l
239220 232308 236296 232308 4064 l
142996 232308 33392 232308 4064 l
29328 232308 4572 232308 4064 l
504572 235991 342708 235991 4064 l
326436 235991 266241 235991 4064 l
255080 235991 254064 235991 4064 l
242903 235991 236296 235991 4064 l
142996 235991 88081 235991 4064 l
80392 235991 76328 235991 4064 l
68639 235991 57541 235991 4064 l
33392 235991 29328 235991 4064 l
5179 235991 4572 235991 4064 l
504572 239674 342708 239674 4064 l
326436 239674 262558 239674 4064 l
255080 239674 254064 239674 4064 l
246586 239674 236296 239674 4064 l
211136 239674 208733 239674 4064 l
171123 239674 168156 239674 4064 l
142996 239674 94588 239674 4064 l
80392 239674 76328 239674 4064 l
62132 239674 56526 239674 4064 l
33392 239674 29328 239674 4064 l
6194 239674 4572 239674 4064 l
504572 243357 342708 243357 4064 l
326436 243357 236296 243357 4064 l
211136 243357 168156 243357 4064 l
142996 243357 98526 243357 4064 l
80392 243357 76328 243357 4064 l
58194 243357 54936 243357 4064 l
33392 243357 29328 243357 4064 l
7784 243357 4572 243357 4064 l
504572 247040 342708 247040 4064 l
326436 247040 224934 247040 4064 l
222498 247040 168156 247040 4064 l
156794 247040 154358 247040 4064 l
142996 247040 101184 247040 4064 l
80392 247040 76328 247040 4064 l
55536 247040 52557 247040 4064 l
33392 247040 29328 247040 4064 l
10163 247040 4572 247040 4064 l
504572 250723 342708 250723 4064 l
326436 250723 236296 250723 4064 l
224934 250723 222498 250723 4064 l
211136 250723 168156 250723 4064 l
156794 250723 154358 250723 4064 l
142996 250723 103074 250723 4064 l
80392 250723 76328 250723 4064 l
53646 250723 49199 250723 4064 l
33392 250723 29328 250723 4064 l
13521 250723 4572 250723 4064 l
504572 254406 342708 254406 4064 l
326436 254406 235891 254406 4064 l
224934 254406 222498 254406 4064 l
211541 254406 167703 254406 4064 l
156794 254406 154358 254406 4064 l
143449 254406 104246 254406 4064 l
80392 254406 76328 254406 4064 l
52474 254406 43903 254406 4064 l
33392 254406 29328 254406 4064 l
18817 254406 4572 254406 4064 l
504572 258089 342708 258089 4064 l
326436 258089 104888 258089 4064 l
80392 258089 76328 258089 4064 l
51832 258089 4572 258089 4064 l
504572 261772 342708 261772 4064 l
326436 261772 80392 261772 4064 l
76328 261772 4572 261772 4064 l
504572 265455 342708 265455 4064 l
326436 265455 104664 265455 4064 l
80392 265455 76328 265455 4064 l
52056 265455 4572 265455 4064 l
504572 269138 342708 269138 4064 l
326436 269138 103714 269138 4064 l
80392 269138 76328 269138 4064 l
53006 269138 4572 269138 4064 l
504572 272821 342708 272821 4064 l
326436 272821 102194 272821 4064 l
80392 272821 76328 272821 4064 l
54526 272821 4572 272821 4064 l
504572 276504 344849 276504 4064 l
324295 276504 99985 276504 4064 l
80392 276504 76328 276504 4064 l
56735 276504 4572 276504 4064 l
504572 280187 346472 280187 4064 l
322672 280187 96735 280187 4064 l
80392 280187 76328 280187 4064 l
59985 280187 4572 280187 4064 l
504572 283870 346891 283870 4064 l
322253 283870 91844 283870 4064 l
80392 283870 76328 283870 4064 l
64876 283870 4572 283870 4064 l
504572 287553 346289 287553 4064 l
322855 287553 4572 287553 4064 l
504572 291236 344407 291236 4064 l
324737 291236 260758 291236 4064 l
248386 291236 4572 291236 4064 l
504572 294919 343264 294919 4064 l
325880 294919 266469 294919 4064 l
242675 294919 4572 294919 4064 l
504572 298602 345826 298602 4064 l
323318 298602 269484 298602 4064 l
239660 298602 4572 298602 4064 l
504572 302285 346829 302285 4064 l
322316 302285 271009 302285 4064 l
238135 302285 4572 302285 4064 l
504572 305968 346677 305968 4064 l
334572 305968 334572 305968 4064 l
322467 305968 271604 305968 4064 l
237540 305968 4572 305968 4064 l
504572 309651 345340 309651 4064 l
334572 309651 334572 309651 4064 l
323804 309651 271604 309651 4064 l
237540 309651 4572 309651 4064 l
504572 313334 342200 313334 4064 l
334572 313334 334572 313334 4064 l
326944 313334 270429 313334 4064 l
238715 313334 4572 313334 4064 l
504572 317017 268751 317017 4064 l
240393 317017 4572 317017 4064 l
504572 320700 265068 320700 4064 l
244076 320700 4572 320700 4064 l
504572 324383 4572 324383 4064 l
504572 328066 4572 328066 4064 l
504572 331749 4572 331749 4064 l
504572 335432 4572 335432 4064 l
181428 228795 155610 228795 4064 l
155610 228795 155576 228761 4064 l
155576 228761 155576 206203 4064 l
155576 206203 155532 206159 4064 l
122556 157895 136916 157895 4064 l
136916 157895 139066 160045 4064 l
139066 160045 139066 200431 4064 l
139066 200431 144654 206019 4064 l
144654 206019 155392 206019 4064 l
155392 206019 155532 206159 4064 l
122556 157895 100002 157895 8128 l
100002 157895 99890 158007 4064 l
155576 133003 155576 114967 4064 l
54290 158007 30750 158007 8128 l
30750 158007 30608 158149 4064 l
54290 158007 54290 176775 8128 l
78360 200845 54290 176775 8128 l
223612 206159 223612 228739 4064 l
223612 228739 223716 228843 4064 l
223716 228843 198476 228843 4064 l
198476 228843 198428 228795 4064 l
334572 228043 334572 283649 4080 l
334572 228043 300102 193573 4080 l
300102 193573 280790 193573 4080 l
280790 193573 280670 193693 4080 l
223612 193559 250208 193559 4064 l
250208 193559 263670 193693 4064 l
155576 150003 155576 168015 4064 l
155576 168015 155532 168059 4064 l
223612 180859 239156 180859 4064 l
239156 180859 254636 165379 4064 l
254636 165379 254636 149073 4064 l
254636 149073 254572 149009 4064 l
202312 121573 202312 104165 4064 l
202312 104165 206630 99847 4064 l
206630 99847 275718 99847 4064 l
334572 93751 281814 93751 4080 l
281814 93751 275718 99847 4080 l
269368 89179 196724 89179 4064 l
196724 89179 179960 105943 4064 l
179960 105943 179960 121065 4064 l
334572 73751 284796 73751 4080 l
284796 73751 269368 89179 4080 l
155576 180873 155532 180759 4064 l
155576 180873 168022 180873 4064 l
168022 180873 179960 168935 4064 l
179960 168935 179960 138065 4064 l
155532 193459 167628 193459 4064 l
167628 193459 202312 158775 4064 l
202312 158775 202312 138573 4064 l
254572 225209 10160 h
254572 149009 10160 h
78360 200845 29972 h
78360 260845 29972 h
31360 230845 29972 h
334572 113751 7000 h
334572 93751 7000 h
334572 73751 7000 h
334572 303649 7000 h
334572 283649 7000 h
showpage grestore
